<?xml version="1.0" encoding="utf-8"?>
<!-- Generator: Adobe Illustrator 19.0.0, SVG Export Plug-In . SVG Version: 6.00 Build 0)  -->
<svg version="1.1" id="Camada_1" xmlns="http://www.w3.org/2000/svg" xmlns:xlink="http://www.w3.org/1999/xlink" x="0px" y="0px"
	 viewBox="0 0 500 235.8" style="enable-background:new 0 0 500 235.8;" xml:space="preserve">
<style type="text/css">
	.st0{fill:#EDEBEA;}
	.st1{fill:#D8D8D8;}
</style>
<g id="XMLID_55_">
	<path id="XMLID_78_" class="st0" d="M486.5,235.8h-473c-6.6,0-12-5.4-12-12V12c0-6.6,5.4-12,12-12h473c6.6,0,12,5.4,12,12v211.8
		C498.5,230.4,493.1,235.8,486.5,235.8z"/>
	<g id="IMAGE_5_">
		<g id="XMLID_66_">
			<path id="XMLID_73_" class="st1" d="M293,85.5c0-0.8-0.7-1.5-1.5-1.5h-82.1c-0.8,0-1.5,0.7-1.5,1.5v64.1c0,0.8,0.7,1.5,1.5,1.5
				h82.1c0.8,0,1.5-0.7,1.5-1.5V85.5z M288,149h-78V86h78V149z"/>
			<path id="XMLID_68_" class="st1" d="M231,116.6c4.5,0,8.1-3.6,8.1-8.1c0-4.5-3.6-8.1-8.1-8.1s-8.1,3.6-8.1,8.1
				C222.9,113,226.5,116.6,231,116.6z M231,103.3c2.9,0,5.2,2.3,5.2,5.2s-2.3,5.2-5.2,5.2s-5.2-2.3-5.2-5.2S228.1,103.3,231,103.3z"
				/>
			<path id="XMLID_67_" class="st1" d="M217.9,142.6c0.3,0,0.7-0.1,1-0.4l23.8-20.9l15,15c0.6,0.6,1.5,0.6,2.1,0
				c0.6-0.6,0.6-1.5,0-2.1l-7-7l13.4-14.6l16.4,15c0.6,0.5,1.5,0.5,2.1-0.1c0.5-0.6,0.5-1.5-0.1-2.1l-17.5-16
				c-0.3-0.3-0.7-0.4-1-0.4c-0.4,0-0.8,0.2-1,0.5l-14.3,15.6l-6.9-6.9c-0.5-0.5-1.4-0.6-2-0.1l-24.8,21.8c-0.6,0.5-0.7,1.5-0.1,2.1
				C217.1,142.5,217.5,142.6,217.9,142.6z"/>
		</g>
	</g>
</g>
</svg>
